{
    "add_ons_hw": {
        "1": "hw_add1", 
        "2": "hw_add2", 
        "3": "hw_add3"
    }, 
    "add_ons_sw": {
        "1": "sw_add1", 
        "2": "sw_add2", 
        "3": "sw_add3"
    }, 
    "address": {
        "range": [
            0, 
            7
        ]
    }, 
    "address2": {
        "range": [
            0, 
            7
        ]
    }, 
    "brands": {
        "1": "Intel"
    }, 
    "bw_uplink": {
        "1": "1 Gbps", 
        "2": "10 Gbps", 
        "3": "100 Mbps"
    }, 
    "bw_vol": {
        "range": [
            0, 
            50
        ]
    }, 
    "content": {
        "1": "Torrents", 
        "2": "IRC", 
        "3": "Adult", 
        "4": "Extrimism"
    }, 
    "cost": {
        "position": 0, 
        "range": [
            0, 
            1000
        ], 
        "value": "$"
    }, 
    "cpu_brand": {
        "1": "Intel"
    }, 
    "cpu_fam1": {
        "1": "Xeon E5", 
        "2": "Xeon E3", 
        "3": "Xeon D", 
        "4": "Xeon", 
        "5": "Core2Quad"
    }, 
    "currency": {
        "EUR": "\u20ac", 
        "USD": "$"
    }, 
    "deployment": {
        "convert_border": 60, 
        "steps": [
            0, 
            10, 
            30, 
            60, 
            120, 
            180, 
            360, 
            720, 
            1440, 
            2880, 
            4320
        ], 
        "types": [
            "min", 
            "hr"
        ]
    }, 
    "hdd_size": {
        "convert_border": 1000, 
        "steps": [
            0, 
            200, 
            400, 
            600, 
            800, 
            1000, 
            1500, 
            2000, 
            2500, 
            3000, 
            5000, 
            7000
        ], 
        "types": [
            "GB", 
            "TB"
        ]
    }, 
    "hdd_type": {
        "1": "SAS", 
        "2": "SATA", 
        "3": "SSD"
    }, 
    "os": {
        "1": "Windows", 
        "2": "Proxmox", 
        "3": "Linux", 
        "4": "Citrix"
    }, 
    "os1": {
        "1": "Windows 2012", 
        "2": "Windows 2008"
    }, 
    "os2": {
        "1": "Proxmox"
    }, 
    "os3": {
        "1": "Ubuntu", 
        "2": "Slackware", 
        "3": "OpenSuse", 
        "4": "Fedora", 
        "5": "Debian", 
        "6": "CloudLinux", 
        "7": "CentOS"
    }, 
    "os4": {
        "1": "Citrix"
    }, 
    "ram_rate": {
        "1": "1866 MHz", 
        "2": "2133 MHz", 
        "3": "667 MHz"
    }, 
    "ram_size": {
        "range": [
            0, 
            256
        ]
    }, 
    "ram_type": {
        "1": "DDR2", 
        "2": "DDR3", 
        "3": "DDR4"
    }
}